{
  "content": [
    {
      "id": 12,
      "name": "컨버스",
      "price": 20000,
      "imageUrl": "https://sitem.ssgcdn.com/65/73/69/item/1000163697365_i1_750.jpg",
      "category": "fashion"
    },
    {
      "id": 21,
      "name": "나이키",
      "price": 20000,
      "imageUrl": "https://static.nike.com/a/images/c_limit,w_592,f_auto/t_product_v1/a28864e3-de02-48bb-b861-9c592bc9a68b/%EB%B6%81-1-ep-%EB%86%8D%EA%B5%AC%ED%99%94-UOp6QQvg.png",
      "category": "fashion"
    },
    {
      "id": 34,
      "name": "코카콜라",
      "price": 10000,
      "imageUrl": "https://godomall.speedycdn.net/1cd80571a779bf8f2c08a18dc0965949/goods/1000000027/image/detail/1000000027_detail_012.jpg",
      "category": "beverage"
    },
    {
      "id": 35,
      "name": "스마트폰",
      "price": 950000,
      "imageUrl": "https://images.unsplash.com/photo-1555421689-3f034debb7a6?q=80&w=3540&auto=format&fit=crop&ixlib=rb-4.0.3&ixid=M3wxMjA3fDB8MHxwaG90by1wYWdlfHx8fGVufDB8fHx8fA%3D%3D",
      "category": "electronics"
    }
  ],
  "pageable": {
    "sort": {
      "sorted": false,
      "unsorted": true,
      "empty": true
    },
    "pageNumber": 1,
    "pageSize": 4,
    "offset": 4,
    "paged": true,
    "unpaged": false
  },
  "last": false,
  "totalPages": 39,
  "totalElements": 156,
  "sort": {
    "sorted": false,
    "unsorted": true,
    "empty": true
  },
  "first": false,
  "number": 1,
  "numberOfElements": 4,
  "size": 4,
  "empty": false
}
