{
  "content": [
    {
      "id": 2,
      "name": "나이키",
      "price": 1000,
      "imageUrl": "https://static.nike.com/a/images/c_limit,w_592,f_auto/t_product_v1/a28864e3-de02-48bb-b861-9c592bc9a68b/%EB%B6%81-1-ep-%EB%86%8D%EA%B5%AC%ED%99%94-UOp6QQvg.png",
      "category": "fashion"
    },
    {
      "id": 3,
      "name": "아디다스",
      "price": 2000,
      "imageUrl": "https://sitem.ssgcdn.com/74/25/04/item/1000373042574_i1_750.jpg",
      "category": "fashion"
    },
    {
      "id": 64,
      "name": "양말",
      "price": 10000,
      "imageUrl": "https://images.unsplash.com/photo-1695073621086-aa692bc32a3d?q=80&w=3540&auto=format&fit=crop&ixlib=rb-4.0.3&ixid=M3wxMjA3fDB8MHxwaG90by1wYWdlfHx8fGVufDB8fHx8fA%3D%3D",
      "category": "fashion"
    },
    {
      "id": 10,
      "name": "퓨마",
      "price": 10000,
      "imageUrl": "https://sitem.ssgcdn.com/47/78/22/item/1000031227847_i1_750.jpg",
      "category": "fashion"
    },
    {
      "id": 71,
      "name": "넥타이",
      "price": 15000,
      "imageUrl": "https://images.unsplash.com/3/www.madebyvadim.com.jpg?q=80&w=3282&auto=format&fit=crop&ixlib=rb-4.0.3&ixid=M3wxMjA3fDB8MHxwaG90by1wYWdlfHx8fGVufDB8fHx8fA%3D%3D",
      "category": "fashion"
    },
    {
      "id": 67,
      "name": "벨트",
      "price": 15000,
      "imageUrl": "https://images.unsplash.com/photo-1593081891731-fda0877988da?q=80&w=3387&auto=format&fit=crop&ixlib=rb-4.0.3&ixid=M3wxMjA3fDB8MHxwaG90by1wYWdlfHx8fGVufDB8fHx8fA%3D%3D",
      "category": "fashion"
    },
    {
      "id": 21,
      "name": "나이키",
      "price": 20000,
      "imageUrl": "https://static.nike.com/a/images/c_limit,w_592,f_auto/t_product_v1/a28864e3-de02-48bb-b861-9c592bc9a68b/%EB%B6%81-1-ep-%EB%86%8D%EA%B5%AC%ED%99%94-UOp6QQvg.png",
      "category": "fashion"
    },
    {
      "id": 11,
      "name": "리복",
      "price": 20000,
      "imageUrl": "https://image.msscdn.net/images/goods_img/20221031/2909092/2909092_6_500.jpg",
      "category": "fashion"
    },
    {
      "id": 66,
      "name": "모자",
      "price": 20000,
      "imageUrl": "https://images.unsplash.com/3/www.madebyvadim.com.jpg?q=80&w=3282&auto=format&fit=crop&ixlib=rb-4.0.3&ixid=M3wxMjA3fDB8MHxwaG90by1wYWdlfHx8fGVufDB8fHx8fA%3D%3D",
      "category": "fashion"
    },
    {
      "id": 72,
      "name": "장갑",
      "price": 20000,
      "imageUrl": "https://images.unsplash.com/photo-1593081891731-fda0877988da?q=80&w=3387&auto=format&fit=crop&ixlib=rb-4.0.3&ixid=M3wxMjA3fDB8MHxwaG90by1wYWdlfHx8fGVufDB8fHx8fA%3D%3D",
      "category": "fashion"
    },
    {
      "id": 135,
      "name": "캐주얼 블랙 티셔츠",
      "price": 20000,
      "imageUrl": "https://images.unsplash.com/3/www.madebyvadim.com.jpg?q=80&w=3282&auto=format&fit=crop&ixlib=rb-4.0.3&ixid=M3wxMjA3fDB8MHxwaG90by1wYWdlfHx8fGVufDB8fHx8fA%3D%3D",
      "category": "fashion"
    },
    {
      "id": 12,
      "name": "컨버스",
      "price": 20000,
      "imageUrl": "https://sitem.ssgcdn.com/65/73/69/item/1000163697365_i1_750.jpg",
      "category": "fashion"
    },
    {
      "id": 62,
      "name": "반바지",
      "price": 30000,
      "imageUrl": "https://images.unsplash.com/photo-1593081891731-fda0877988da?q=80&w=3387&auto=format&fit=crop&ixlib=rb-4.0.3&ixid=M3wxMjA3fDB8MHxwaG90by1wYWdlfHx8fGVufDB8fHx8fA%3D%3D",
      "category": "fashion"
    },
    {
      "id": 55,
      "name": "셔츠",
      "price": 30000,
      "imageUrl": "https://images.unsplash.com/photo-1591348278863-a8fb3887e2aa?q=80&w=2735&auto=format&fit=crop&ixlib=rb-4.0.3&ixid=M3wxMjA3fDB8MHxwaG90by1wYWdlfHx8fGVufDB8fHx8fA%3D%3D",
      "category": "fashion"
    },
    {
      "id": 69,
      "name": "잠옷",
      "price": 30000,
      "imageUrl": "https://images.unsplash.com/photo-1695073621086-aa692bc32a3d?q=80&w=3540&auto=format&fit=crop&ixlib=rb-4.0.3&ixid=M3wxMjA3fDB8MHxwaG90by1wYWdlfHx8fGVufDB8fHx8fA%3D%3D",
      "category": "fashion"
    },
    {
      "id": 63,
      "name": "스커트",
      "price": 35000,
      "imageUrl": "https://images.unsplash.com/photo-1623998021450-85c29c644e0d?q=80&w=3357&auto=format&fit=crop&ixlib=rb-4.0.3&ixid=M3wxMjA3fDB8MHxwaG90by1wYWdlfHx8fGVufDB8fHx8fA%3D%3D",
      "category": "fashion"
    },
    {
      "id": 139,
      "name": "스트라이프 셔츠",
      "price": 35000,
      "imageUrl": "https://images.unsplash.com/photo-1591348278863-a8fb3887e2aa?q=80&w=2735&auto=format&fit=crop&ixlib=rb-4.0.3&ixid=M3wxMjA3fDB8MHxwaG90by1wYWdlfHx8fGVufDB8fHx8fA%3D%3D",
      "category": "fashion"
    },
    {
      "id": 61,
      "name": "블라우스",
      "price": 40000,
      "imageUrl": "https://images.unsplash.com/3/www.madebyvadim.com.jpg?q=80&w=3282&auto=format&fit=crop&ixlib=rb-4.0.3&ixid=M3wxMjA3fDB8MHxwaG90by1wYWdlfHx8fGVufDB8fHx8fA%3D%3D",
      "category": "fashion"
    },
    {
      "id": 70,
      "name": "수영복",
      "price": 40000,
      "imageUrl": "https://images.unsplash.com/photo-1591348278863-a8fb3887e2aa?q=80&w=2735&auto=format&fit=crop&ixlib=rb-4.0.3&ixid=M3wxMjA3fDB8MHxwaG90by1wYWdlfHx8fGVufDB8fHx8fA%3D%3D",
      "category": "fashion"
    },
    {
      "id": 56,
      "name": "청바지",
      "price": 40000,
      "imageUrl": "https://images.unsplash.com/3/www.madebyvadim.com.jpg?q=80&w=3282&auto=format&fit=crop&ixlib=rb-4.0.3&ixid=M3wxMjA3fDB8MHxwaG90by1wYWdlfHx8fGVufDB8fHx8fA%3D%3D",
      "category": "fashion"
    }
  ],
  "pageable": {
    "sort": {
      "sorted": true,
      "unsorted": false,
      "empty": false
    },
    "pageNumber": 0,
    "pageSize": 20,
    "offset": 0,
    "paged": true,
    "unpaged": false
  },
  "last": false,
  "totalPages": 2,
  "totalElements": 36,
  "sort": {
    "sorted": true,
    "unsorted": false,
    "empty": false
  },
  "first": true,
  "number": 0,
  "numberOfElements": 20,
  "size": 20,
  "empty": false
}
