{
  "content": [
    {
      "id": 131,
      "name": "역사논문",
      "price": 12000,
      "imageUrl": "https://images.unsplash.com/photo-1589998059171-988d887df646?q=80&w=3552&auto=format&fit=crop&ixlib=rb-4.0.3&ixid=M3wxMjA3fDB8MHxwaG90by1wYWdlfHx8fGVufDB8fHx8fA%3D%3D",
      "category": "books"
    },
    {
      "id": 118,
      "name": "역사책",
      "price": 12000,
      "imageUrl": "https://plus.unsplash.com/premium_photo-1681825268400-c561bd47d586?q=80&w=3544&auto=format&fit=crop&ixlib=rb-4.0.3&ixid=M3wxMjA3fDB8MHxwaG90by1wYWdlfHx8fGVufDB8fHx8fA%3D%3D",
      "category": "books"
    },
    {
      "id": 126,
      "name": "음악책",
      "price": 12000,
      "imageUrl": "https://plus.unsplash.com/premium_photo-1681825268400-c561bd47d586?q=80&w=3544&auto=format&fit=crop&ixlib=rb-4.0.3&ixid=M3wxMjA3fDB8MHxwaG90by1wYWdlfHx8fGVufDB8fHx8fA%3D%3D",
      "category": "books"
    },
    {
      "id": 115,
      "name": "자기계발서",
      "price": 12000,
      "imageUrl": "https://plus.unsplash.com/premium_photo-1667251760504-096946b820af?q=80&w=3387&auto=format&fit=crop&ixlib=rb-4.0.3&ixid=M3wxMjA3fDB8MHxwaG90by1wYWdlfHx8fGVufDB8fHx8fA%3D%3D",
      "category": "books"
    }
  ],
  "pageable": {
    "sort": {
      "sorted": true,
      "unsorted": false,
      "empty": false
    },
    "pageNumber": 5,
    "pageSize": 4,
    "offset": 20,
    "paged": true,
    "unpaged": false
  },
  "last": true,
  "totalPages": 39,
  "totalElements": 155,
  "sort": {
    "sorted": true,
    "unsorted": false,
    "empty": false
  },
  "first": false,
  "number": 5,
  "numberOfElements": 4,
  "size": 4,
  "empty": false
}
